{
    "chars": [
        "JetFitter_isDefaults",
        "SV1_isDefaults",
        "JetFitterSecondaryVertex_isDefaults"
    ],
    "jet_int_variables": [
        "HadronConeExclTruthLabelID",
        "HadronConeExclExtendedTruthLabelID",
        "jetPtRank"
    ],
    "int_variables": [
        "JetFitter_nVTX",
        "JetFitter_nSingleTracks",
        "JetFitter_nTracksAtVtx",
        "JetFitter_N2Tpair",
        "SV1_N2Tpair",
        "SV1_NGTinSvx",
        "JetFitterSecondaryVertex_nTracks"
    ],
    "floats": [
        "JetFitter_energyFraction",
        "JetFitter_mass",
        "JetFitter_significance3d",
        "JetFitter_deltaphi",
        "JetFitter_deltaeta",
        "JetFitter_massUncorr",
        "JetFitter_dRFlightDir",
        "SV1_masssvx",
        "SV1_efracsvx",
        "SV1_significance3d",
        "SV1_correctSignificance3d",
        "SV1_dstToMatLay",
        "SV1_deltaR",
        "SV1_Lxy",
        "SV1_L3d",
        "JetFitter_deltaR",
        "JetFitterSecondaryVertex_displacement3d",
        "JetFitterSecondaryVertex_displacement2d",
        "JetFitterSecondaryVertex_mass",
        "JetFitterSecondaryVertex_energy",
        "JetFitterSecondaryVertex_energyFraction",
        "JetFitterSecondaryVertex_minimumTrackRelativeEta",
        "JetFitterSecondaryVertex_maximumTrackRelativeEta",
        "JetFitterSecondaryVertex_averageTrackRelativeEta",
        "JetFitterSecondaryVertex_maximumAllJetTrackRelativeEta",
        "JetFitterSecondaryVertex_minimumAllJetTrackRelativeEta",
        "JetFitterSecondaryVertex_averageAllJetTrackRelativeEta"
    ],
    "doubles": [],
    "jet_floats": [
        "deltaRToVRJet",
        "relativeDeltaRToVRJet"
    ],
    "event": [
        "mcEventWeight",
        "eventNumber",
        "averageInteractionsPerCrossing",
        "actualInteractionsPerCrossing",
        "nPrimaryVertices"
    ]
}
